milestone_8
…
## Warning: NAs introduced by coercion

## # A tibble: 26 x 7
##    Country TopTen_Gen TopTen_Dux Number_Comm Embassies Population Post_Soviet
##      <int>      <dbl>      <dbl>       <dbl>     <dbl>      <dbl>       <dbl>
##  1      NA          0          0          16         1      65000           0
##  2      NA          0          0           2         1      17000           0
##  3      NA          0          0           2         1       6640           0
##  4      NA          1          1           3         1      39990           0
##  5      NA          0          0           2         1       6000           0
##  6      NA          0          1           3         1      45000           0
##  7      NA          1          1           2         1       7517           1
##  8      NA          0          1           1         1      10000           0
##  9      NA          0          0           2         1      30000           0
## 10      NA          0          0           2         1      62000           0
## #  with 16 more rows
…
